{
  "summary_last_name": {
    "screen_msg": "Summary:\nLast Name: {l_name}\nNational ID: {national_id}\nGender: {gender}\nAge Group: {age}.",
    "next_options": {}
  },
  "l_name": {
    "screen_msg": "Please type your Last Name",
    "next_options": {
      "else": "summary_last_name"
    }
  },
  "national_id": {
    "screen_msg": "Please type in your national ID below:\n",
    "next_options": {
      "else": "gender2"
    }
  },
  "age": {
    "screen_msg": "What is your age\n1. 0-19 yrs\n2. 20-35 yrs\n3. 36-50yrs \n4. 51+ yrs",
    "next_options": {
      "1": "national_id",
      "3": "national_id",
      "2": "national_id",
      "4": "national_id"
    },
    "type": "initial"
  },
  "gender2": {
    "screen_msg": "What is your gender?\nM. Male\nF. Female\n3. Don't want to disclose",
    "next_options": {
      "M": "f_name",
      "F": "l_name",
      "m": "f_name",
      "f": "l_name"
    }
  },
  "summary_first_name": {
    "screen_msg": "Summary:\nFirst Name: {f_name}\nNational ID: {national_id}\nGender: {gender}\nAge Group: {age}.",
    "next_options": {}
  },
  "f_name": {
    "screen_msg": "Please type your First Name",
    "next_options": {
      "else": "summary_first_name"
    }
  }
}